…
    freeswim_cdf <- lapply(split(freeswim_long_outlierd$Distance, 
                           freeswim_long_outlierd$FishNumber), ecdf)
    freeswim_cdf_y <- sapply(freeswim_cdf, 
                             function(e) e(freeswim_long_outlierd$Distance))

    freeswim_long_AUC <- as.data.frame(freeswim_cdf_y) %>%
      mutate(x = 1:nrow(as.data.frame(freeswim_cdf_y))) %>%
      gather(key = "FishNumber", value = "CDF_y", 1:123) %>%
      mutate(FishNumber = as.numeric(FishNumber)) %>%
      inner_join(freeswim_long_outlierd, by = "FishNumber", multiple = "all") %>%
      group_by(group, FishNumber) %>%
      dplyr::summarise(AUC = AUC(x, CDF_y, na.rm = TRUE)) # default method is trapezoid
    freeswim_long_AUC
    ## # A tibble: 123 × 3
    ## # Groups:   group [12]
    ##    group        FishNumber   AUC
    ##    <chr>             <dbl> <dbl>
    ##  1 F0_AHRMo_BaP          1  894.
    ##  2 F0_AHRMo_BaP          2  943.
    ##  3 F0_AHRMo_BaP          3  964.
    ##  4 F0_AHRMo_BaP          4  964.
    ##  5 F0_AHRMo_BaP          5  900.
    ##  6 F0_AHRMo_BaP          6  892.
    ##  7 F0_AHRMo_BaP          7  960.
    ##  8 F0_AHRMo_BaP          8 1072.
    ##  9 F0_AHRMo_BaP          9  960.
    ## 10 F0_AHRMo_BaP         10 1053.
    ## # ℹ 113 more rows
…
    shoal_nnd_cdf <- lapply(split(shoal_nnd_long_outlierd$NearestNeighborDist, 
                           shoal_nnd_long_outlierd$FishNumber), ecdf)
    shoal_nnd_cdf_y <- sapply(shoal_nnd_cdf, 
                             function(e) e(shoal_nnd_long_outlierd$NearestNeighborDist))

    shoal_nnd_long_AUC <- as.data.frame(shoal_nnd_cdf_y) %>%
      mutate(x = 1:nrow(as.data.frame(shoal_nnd_cdf_y))) %>%
      gather(key = "FishNumber", value = "CDF_y", 1:132) %>%
      mutate(FishNumber = as.numeric(FishNumber)) %>%
      inner_join(shoal_nnd_long_outlierd, by = "FishNumber", multiple = "all") %>%
      group_by(group, FishNumber) %>%
      dplyr::summarise(AUC = AUC(x, CDF_y, na.rm = TRUE)) # default method is trapezoid
    shoal_nnd_long_AUC
    ## # A tibble: 132 × 3
    ## # Groups:   group [12]
    ##    group        FishNumber   AUC
    ##    <chr>             <dbl> <dbl>
    ##  1 F0_AHRMo_BaP          1  886.
    ##  2 F0_AHRMo_BaP          2  907.
    ##  3 F0_AHRMo_BaP          3 1022.
    ##  4 F0_AHRMo_BaP          4 1022.
    ##  5 F0_AHRMo_BaP          5  930.
    ##  6 F0_AHRMo_BaP          6  883.
    ##  7 F0_AHRMo_BaP          7 1017.
    ##  8 F0_AHRMo_BaP          8 1017.
    ##  9 F0_AHRMo_BaP          9 1130.
    ## 10 F0_AHRMo_BaP         10  979.
    ## # ℹ 122 more rows
…
    shoal_iid_cdf <- lapply(split(shoal_iid_long_outlierd$InterIndivDist, 
                           shoal_iid_long_outlierd$FishNumber), ecdf)
    shoal_iid_cdf_y <- sapply(shoal_iid_cdf, 
                             function(e) e(shoal_iid_long_outlierd$InterIndivDist))

    shoal_iid_long_AUC <- as.data.frame(shoal_iid_cdf_y) %>%
      mutate(x = 1:nrow(as.data.frame(shoal_iid_cdf_y))) %>%
      gather(key = "FishNumber", value = "CDF_y", 1:107) %>%
      mutate(FishNumber = as.numeric(FishNumber)) %>%
      inner_join(shoal_iid_long_outlierd, by = "FishNumber", multiple = "all") %>%
      group_by(group, FishNumber) %>%
      dplyr::summarise(AUC = AUC(x, CDF_y, na.rm = TRUE)) # default method is trapezoid
    shoal_iid_long_AUC
    ## # A tibble: 107 × 3
    ## # Groups:   group [12]
    ##    group         FishNumber   AUC
    ##    <chr>              <dbl> <dbl>
    ##  1 F0_AHRMo_BaP           1  884.
    ##  2 F0_AHRMo_BaP           2  893.
    ##  3 F0_AHRMo_BaP           3  854.
    ##  4 F0_AHRMo_BaP           4  892.
    ##  5 F0_AHRMo_BaP           5  894.
    ##  6 F0_AHRMo_BaP           6  938 
    ##  7 F0_AHRMo_DMSO          7  913.
    ##  8 F0_AHRMo_DMSO          8  921.
    ##  9 F0_AHRMo_DMSO          9  921.
    ## 10 F0_CoMo _BaP          10  858.
    ## # ℹ 97 more rows
…
    shoal_speed_cdf <- lapply(split(shoal_speed_long_outlierd$speed, 
                           shoal_speed_long_outlierd$FishNumber), ecdf)
    shoal_speed_cdf_y <- sapply(shoal_speed_cdf, 
                             function(e) e(shoal_speed_long_outlierd$speed))

    shoal_speed_long_AUC <- as.data.frame(shoal_speed_cdf_y) %>%
      mutate(x = 1:nrow(as.data.frame(shoal_speed_cdf_y))) %>%
      gather(key = "FishNumber", value = "CDF_y", 1:126) %>%
      mutate(FishNumber = as.numeric(FishNumber)) %>%
      inner_join(shoal_speed_long_outlierd, by = "FishNumber", multiple = "all") %>%
      group_by(group, FishNumber) %>%
      dplyr::summarise(AUC = AUC(x, CDF_y, na.rm = TRUE)) # default method is trapezoid
    shoal_speed_long_AUC
    ## # A tibble: 126 × 3
    ## # Groups:   group [12]
    ##    group        FishNumber   AUC
    ##    <chr>             <dbl> <dbl>
    ##  1 F0_AHRMo_BaP          1  906 
    ##  2 F0_AHRMo_BaP          2  895.
    ##  3 F0_AHRMo_BaP          3  965 
    ##  4 F0_AHRMo_BaP          4  965 
    ##  5 F0_AHRMo_BaP          5 1007.
    ##  6 F0_AHRMo_BaP          6  864.
    ##  7 F0_AHRMo_BaP          7  963.
    ##  8 F0_AHRMo_BaP          8  963.
    ##  9 F0_AHRMo_BaP          9 1071.
    ## 10 F0_AHRMo_BaP         10  883 
    ## # ℹ 116 more rows
…
